{"current_page":1,"data":[{"tracking":"DHDCXBD26050612885342","reference":"leki253920","client":"\u062f\u062d\u0645\u0648\u0646 \u0623\u064a\u0645\u0646","phone":"0775430934","phone_2":null,"adresse":".","stop_desk":1,"commune_id":571,"wilaya_id":32,"montant":"1700","tarif_prestation":"450","tarif_retour":"0","type_id":1,"created_at":"2026-05-06 18:30:46","payment_id":null,"return_id":null,"process_state_id":1,"livred_at":null,"exchanged_at":null,"return_asked_at":null,"last_updated_at":"2026-05-06 18:30:46","products":"\u062d\u0632\u0627\u0645 \u0634\u062f \u0627\u0644\u0638\u0647\u0631 (qte: 1)","status":"prete_a_expedier","global_status":"en_process","status_reason":[],"order_products":[]},{"tracking":"DHDCXBD26050612885301","reference":"leki253921","client":"\u0648\u0644\u064a\u062f","phone":"0668000200","phone_2":null,"adresse":".","stop_desk":1,"commune_id":1271,"wilaya_id":22,"montant":"1650","tarif_prestation":"350","tarif_retour":"0","type_id":1,"created_at":"2026-05-06 18:30:45","payment_id":null,"return_id":null,"process_state_id":1,"livred_at":null,"exchanged_at":null,"return_asked_at":null,"last_updated_at":"2026-05-06 18:30:45","products":"\u062d\u0632\u0627\u0645 \u0634\u062f \u0627\u0644\u0638\u0647\u0631 (qte: 1)","status":"prete_a_expedier","global_status":"en_process","status_reason":[],"order_products":[]},{"tracking":"DHDCXBD26050612884584","reference":"leki253309","client":"Dellil","phone":"0540097533","phone_2":null,"adresse":"Domi","stop_desk":0,"commune_id":681,"wilaya_id":31,"montant":"3400","tarif_prestation":"550","tarif_retour":"0","type_id":1,"created_at":"2026-05-06 18:19:17","payment_id":null,"return_id":null,"process_state_id":1,"livred_at":null,"exchanged_at":null,"return_asked_at":null,"last_updated_at":"2026-05-06 18:19:17","products":"\u0637\u0642\u0645 \u0633\u062c\u0627\u062f\u0627\u062a \u0635\u0644\u0627\u0629 (qte: 10)","status":"prete_a_expedier","global_status":"en_process","status_reason":[],"order_products":[]},{"tracking":"DHDCXBD26050612884583","reference":"leki253368","client":"youcef","phone":"0554672692","phone_2":null,"adresse":"Sd","stop_desk":1,"commune_id":322,"wilaya_id":16,"montant":"3100","tarif_prestation":"200","tarif_retour":"0","type_id":1,"created_at":"2026-05-06 18:19:16","payment_id":null,"return_id":null,"process_state_id":1,"livred_at":null,"exchanged_at":null,"return_asked_at":null,"last_updated_at":"2026-05-06 18:19:16","products":"\u0637\u0642\u0645 \u0633\u062c\u0627\u062f\u0627\u062a \u0635\u0644\u0627\u0629 (qte: 10)","status":"prete_a_expedier","global_status":"en_process","status_reason":[],"order_products":[]},{"tracking":"DHDCXBD26050612884582","reference":"leki253609","client":"\u0633\u0639\u0627\u062f","phone":"0670182363","phone_2":null,"adresse":".","stop_desk":1,"commune_id":1154,"wilaya_id":4,"montant":"3200","tarif_prestation":"350","tarif_retour":"0","type_id":1,"created_at":"2026-05-06 18:19:16","payment_id":null,"return_id":null,"process_state_id":1,"livred_at":null,"exchanged_at":null,"return_asked_at":null,"last_updated_at":"2026-05-06 18:19:16","products":"\u0637\u0642\u0645 \u0633\u062c\u0627\u062f\u0627\u062a \u0635\u0644\u0627\u0629 (qte: 10)","status":"prete_a_expedier","global_status":"en_process","status_reason":[],"order_products":[]},{"tracking":"DHDCXBD26050612884581","reference":"leki253576","client":"\u0633\u064a \u0627\u0644\u0639\u0631\u0628\u064a \u0639\u0628\u062f \u0627\u0644\u0646\u0627\u0635\u0631","phone":"0675918234","phone_2":null,"adresse":"Domicile","stop_desk":0,"commune_id":1069,"wilaya_id":48,"montant":"3500","tarif_prestation":"600","tarif_retour":"0","type_id":1,"created_at":"2026-05-06 18:19:16","payment_id":null,"return_id":null,"process_state_id":1,"livred_at":null,"exchanged_at":null,"return_asked_at":null,"last_updated_at":"2026-05-06 18:19:16","products":"\u0637\u0642\u0645 \u0633\u062c\u0627\u062f\u0627\u062a \u0635\u0644\u0627\u0629 (qte: 10)","status":"prete_a_expedier","global_status":"en_process","status_reason":[],"order_products":[]},{"tracking":"DHDCXBD26050612884580","reference":"leki253554","client":"\u0628\u0648\u0639\u0627\u0641\u064a\u0629  \u0648\u0633\u064a\u0644\u0629","phone":"0663876499","phone_2":null,"adresse":"Domicile","stop_desk":0,"commune_id":74,"wilaya_id":36,"montant":"2300","tarif_prestation":"600","tarif_retour":"0","type_id":1,"created_at":"2026-05-06 18:19:15","payment_id":null,"return_id":null,"process_state_id":1,"livred_at":null,"exchanged_at":null,"return_asked_at":null,"last_updated_at":"2026-05-06 18:19:15","products":"\u0637\u0642\u0645 \u0633\u062c\u0627\u062f\u0627\u062a \u0635\u0644\u0627\u0629 (qte: 5)","status":"prete_a_expedier","global_status":"en_process","status_reason":[],"order_products":[]},{"tracking":"DHDCXBD26050612884579","reference":"leki253062","client":"\u0633\u064a\u062f\u0639\u0644\u064a \u0645\u062f\u0627\u0646\u064a","phone":"0563282370","phone_2":null,"adresse":"I","stop_desk":1,"commune_id":818,"wilaya_id":53,"montant":"14500","tarif_prestation":"500","tarif_retour":"0","type_id":1,"created_at":"2026-05-06 18:19:15","payment_id":null,"return_id":null,"process_state_id":1,"livred_at":null,"exchanged_at":null,"return_asked_at":null,"last_updated_at":"2026-05-06 18:19:15","products":"\u0637\u0642\u0645 \u0633\u062c\u0627\u062f\u0627\u062a \u0635\u0644\u0627\u0629 (qte: 50)","status":"prete_a_expedier","global_status":"en_process","status_reason":[],"order_products":[]},{"tracking":"DHDCXBD26050612884578","reference":"leki253463","client":"\u0635\u0631\u064a\u062f\u064a \u0637\u064a\u0628","phone":"0663061406","phone_2":null,"adresse":"El hamiz","stop_desk":0,"commune_id":485,"wilaya_id":16,"montant":"3200","tarif_prestation":"350","tarif_retour":"0","type_id":1,"created_at":"2026-05-06 18:19:15","payment_id":null,"return_id":null,"process_state_id":1,"livred_at":null,"exchanged_at":null,"return_asked_at":null,"last_updated_at":"2026-05-06 18:19:15","products":"\u0637\u0642\u0645 \u0633\u062c\u0627\u062f\u0627\u062a \u0635\u0644\u0627\u0629 (qte: 10)","status":"prete_a_expedier","global_status":"en_process","status_reason":[],"order_products":[]},{"tracking":"DHDCXBD26050612884577","reference":"leki253718","client":"Oum nouh","phone":"0675951578","phone_2":null,"adresse":"SD","stop_desk":1,"commune_id":907,"wilaya_id":28,"montant":"2350","tarif_prestation":"350","tarif_retour":"0","type_id":1,"created_at":"2026-05-06 18:19:15","payment_id":null,"return_id":null,"process_state_id":1,"livred_at":null,"exchanged_at":null,"return_asked_at":null,"last_updated_at":"2026-05-06 18:19:15","products":"\u062d\u0627\u0645\u0644 \u0645\u064a\u0643\u0631\u0648\u064a\u0641 (qte: 1)","status":"prete_a_expedier","global_status":"en_process","status_reason":[],"order_products":[]},{"tracking":"DHDCXBD26050612884568","reference":"leki253386","client":"\u0627\u0633\u062d\u0627\u0642","phone":"0697786802","phone_2":null,"adresse":"_","stop_desk":0,"commune_id":455,"wilaya_id":16,"montant":"6000","tarif_prestation":"350","tarif_retour":"0","type_id":1,"created_at":"2026-05-06 18:19:10","payment_id":null,"return_id":null,"process_state_id":1,"livred_at":null,"exchanged_at":null,"return_asked_at":null,"last_updated_at":"2026-05-06 18:19:10","products":"\u0637\u0642\u0645 \u0633\u062c\u0627\u062f\u0627\u062a \u0635\u0644\u0627\u0629 (qte: 20)","status":"prete_a_expedier","global_status":"en_process","status_reason":[],"order_products":[]},{"tracking":"DHDCXBD26050612884567","reference":"leki253618","client":"\u0631\u0634\u064a\u062f   \u0633\u0644\u0627\u0648\u064a","phone":"0698745416","phone_2":null,"adresse":".","stop_desk":0,"commune_id":1064,"wilaya_id":16,"montant":"6000","tarif_prestation":"350","tarif_retour":"0","type_id":1,"created_at":"2026-05-06 18:19:10","payment_id":null,"return_id":null,"process_state_id":1,"livred_at":null,"exchanged_at":null,"return_asked_at":null,"last_updated_at":"2026-05-06 18:19:10","products":"\u0637\u0642\u0645 \u0633\u062c\u0627\u062f\u0627\u062a \u0635\u0644\u0627\u0629 (qte: 20)","status":"prete_a_expedier","global_status":"en_process","status_reason":[],"order_products":[]},{"tracking":"DHDCXBD26050612884566","reference":"leki253558","client":"Madame","phone":"0667171506","phone_2":null,"adresse":"A","stop_desk":0,"commune_id":7,"wilaya_id":1,"montant":"3800","tarif_prestation":"900","tarif_retour":"0","type_id":1,"created_at":"2026-05-06 18:19:09","payment_id":null,"return_id":null,"process_state_id":1,"livred_at":null,"exchanged_at":null,"return_asked_at":null,"last_updated_at":"2026-05-06 18:19:09","products":"\u0637\u0642\u0645 \u0633\u062c\u0627\u062f\u0627\u062a \u0635\u0644\u0627\u0629 (qte: 10)","status":"prete_a_expedier","global_status":"en_process","status_reason":[],"order_products":[]},{"tracking":"DHDCXBD26050612884565","reference":"leki253745","client":"\u0633\u0639\u064a\u062f\u064a \u0641\u0627\u0637\u0645\u0629","phone":"0558335536","phone_2":null,"adresse":"A","stop_desk":1,"commune_id":115,"wilaya_id":46,"montant":"3250","tarif_prestation":"350","tarif_retour":"0","type_id":1,"created_at":"2026-05-06 18:19:09","payment_id":null,"return_id":null,"process_state_id":1,"livred_at":null,"exchanged_at":null,"return_asked_at":null,"last_updated_at":"2026-05-06 18:19:09","products":"\u0637\u0642\u0645 \u0633\u062c\u0627\u062f\u0627\u062a \u0635\u0644\u0627\u0629 (qte: 10)","status":"prete_a_expedier","global_status":"en_process","status_reason":[],"order_products":[]},{"tracking":"DHDCXBD26050612884564","reference":"leki253786","client":"\u0628\u0646 \u062f\u062f\u0648\u0634 \u0645\u0631\u064a\u0645","phone":"0556848868","phone_2":null,"adresse":"Boujlida","stop_desk":0,"commune_id":1494,"wilaya_id":13,"montant":"2300","tarif_prestation":"650","tarif_retour":"0","type_id":1,"created_at":"2026-05-06 18:19:09","payment_id":null,"return_id":null,"process_state_id":1,"livred_at":null,"exchanged_at":null,"return_asked_at":null,"last_updated_at":"2026-05-06 18:19:09","products":"\u0637\u0642\u0645 \u0633\u062c\u0627\u062f\u0627\u062a \u0635\u0644\u0627\u0629 (qte: 5)","status":"prete_a_expedier","global_status":"en_process","status_reason":[],"order_products":[]},{"tracking":"DHDCXBD26050612884563","reference":"leki253803","client":"\u0639\u0645\u0627\u0631 \u0628\u0646\u0627\u064a","phone":"0549600133","phone_2":null,"adresse":"Ain arnat","stop_desk":0,"commune_id":22,"wilaya_id":19,"montant":"2300","tarif_prestation":"550","tarif_retour":"0","type_id":1,"created_at":"2026-05-06 18:19:08","payment_id":null,"return_id":null,"process_state_id":1,"livred_at":null,"exchanged_at":null,"return_asked_at":null,"last_updated_at":"2026-05-06 18:19:08","products":"\u0637\u0642\u0645 \u0633\u062c\u0627\u062f\u0627\u062a \u0635\u0644\u0627\u0629 (qte: 5)","status":"prete_a_expedier","global_status":"en_process","status_reason":[],"order_products":[]},{"tracking":"DHDCXBD26050612884562","reference":"leki253811","client":"\u0643\u0631\u0627\u0634 \u0639\u0628\u062f \u0627\u0644\u062d\u0641\u064a\u0638","phone":"0795277792","phone_2":null,"adresse":".","stop_desk":0,"commune_id":717,"wilaya_id":19,"montant":"3200","tarif_prestation":"550","tarif_retour":"0","type_id":1,"created_at":"2026-05-06 18:19:08","payment_id":null,"return_id":null,"process_state_id":1,"livred_at":null,"exchanged_at":null,"return_asked_at":null,"last_updated_at":"2026-05-06 18:19:08","products":"\u062c\u0647\u0627\u0632 \u0627\u0644\u0631\u064a\u0627\u0636\u0629 \u0627\u0644\u0634\u0627\u0645\u0644 (qte: 1)","status":"prete_a_expedier","global_status":"en_process","status_reason":[],"order_products":[]},{"tracking":"DHDCXBD26050612884561","reference":"leki253823","client":"\u062c\u0648\u0627\u062f\u0629 \u0646\u0633\u064a\u0645\u0629","phone":"0772571438","phone_2":null,"adresse":".","stop_desk":0,"commune_id":1170,"wilaya_id":16,"montant":"2800","tarif_prestation":"350","tarif_retour":"0","type_id":1,"created_at":"2026-05-06 18:19:08","payment_id":null,"return_id":null,"process_state_id":1,"livred_at":null,"exchanged_at":null,"return_asked_at":null,"last_updated_at":"2026-05-06 18:19:08","products":"\u0637\u0642\u0645 \u0633\u062c\u0627\u062f\u0627\u062a \u0635\u0644\u0627\u0629 (qte: 10)","status":"prete_a_expedier","global_status":"en_process","status_reason":[],"order_products":[]},{"tracking":"DHDCXBD26050612884560","reference":"leki253866","client":"\u0627\u0645 \u0646\u0648\u062d","phone":"0540834522","phone_2":null,"adresse":"El attef","stop_desk":0,"commune_id":568,"wilaya_id":44,"montant":"2200","tarif_prestation":"550","tarif_retour":"0","type_id":1,"created_at":"2026-05-06 18:19:08","payment_id":null,"return_id":null,"process_state_id":1,"livred_at":null,"exchanged_at":null,"return_asked_at":null,"last_updated_at":"2026-05-06 18:19:08","products":"\u062c\u0647\u0627\u0632 \u0634\u0641\u0637 \u0627\u0644\u0642\u0645\u0644 (qte: 1)","status":"prete_a_expedier","global_status":"en_process","status_reason":[],"order_products":[]},{"tracking":"DHDCXBD26050612884559","reference":"leki253845","client":"\u0627\u0633\u0627\u0645\u0629","phone":"0668992669","phone_2":null,"adresse":".","stop_desk":0,"commune_id":334,"wilaya_id":34,"montant":"2690","tarif_prestation":"600","tarif_retour":"0","type_id":1,"created_at":"2026-05-06 18:19:07","payment_id":null,"return_id":null,"process_state_id":1,"livred_at":null,"exchanged_at":null,"return_asked_at":null,"last_updated_at":"2026-05-06 18:19:07","products":"\u0633\u0627\u0643\u0648\u0634\u0629 \u0641\u0627\u0634\u064a\u0648\u0646-tik (qte: 1)","status":"prete_a_expedier","global_status":"en_process","status_reason":[],"order_products":[]},{"tracking":"DHDCXBD26050612884558","reference":"leki253862","client":"\u0639\u0628\u0627\u064a\u062f\u064a\u0647","phone":"0657526988","phone_2":null,"adresse":"Domicile","stop_desk":0,"commune_id":842,"wilaya_id":44,"montant":"2150","tarif_prestation":"550","tarif_retour":"0","type_id":1,"created_at":"2026-05-06 18:19:07","payment_id":null,"return_id":null,"process_state_id":1,"livred_at":null,"exchanged_at":null,"return_asked_at":null,"last_updated_at":"2026-05-06 18:19:07","products":"\u0646\u0635\u0641 \u0627\u0644\u0633\u0627\u0642 (qte: 2)","status":"prete_a_expedier","global_status":"en_process","status_reason":[],"order_products":[]},{"tracking":"DHDCXBD26050612884557","reference":"leki253887","client":"Farida","phone":"0672165228","phone_2":null,"adresse":"SD","stop_desk":1,"commune_id":391,"wilaya_id":10,"montant":"1650","tarif_prestation":"350","tarif_retour":"0","type_id":1,"created_at":"2026-05-06 18:19:07","payment_id":null,"return_id":null,"process_state_id":1,"livred_at":null,"exchanged_at":null,"return_asked_at":null,"last_updated_at":"2026-05-06 18:19:07","products":"\u062d\u0632\u0627\u0645 \u0634\u062f \u0627\u0644\u0638\u0647\u0631 (qte: 1)","status":"prete_a_expedier","global_status":"en_process","status_reason":[],"order_products":[]},{"tracking":"DHDCXBD26050612884556","reference":"leki253881","client":"ali","phone":"0791725876","phone_2":null,"adresse":".","stop_desk":1,"commune_id":1492,"wilaya_id":15,"montant":"2050","tarif_prestation":"350","tarif_retour":"0","type_id":1,"created_at":"2026-05-06 18:19:06","payment_id":null,"return_id":null,"process_state_id":1,"livred_at":null,"exchanged_at":null,"return_asked_at":null,"last_updated_at":"2026-05-06 18:19:06","products":"\u0643\u0639\u0628 \u0627\u0644\u0631\u0627\u062d\u0629 (qte: 1)","status":"prete_a_expedier","global_status":"en_process","status_reason":[],"order_products":[]},{"tracking":"DHDCXBD26050612884555","reference":"leki253875","client":"Djallel","phone":"0550365660","phone_2":null,"adresse":"Annaba","stop_desk":0,"commune_id":168,"wilaya_id":23,"montant":"2590","tarif_prestation":"550","tarif_retour":"0","type_id":1,"created_at":"2026-05-06 18:19:06","payment_id":null,"return_id":null,"process_state_id":1,"livred_at":null,"exchanged_at":null,"return_asked_at":null,"last_updated_at":"2026-05-06 18:19:06","products":"\u0633\u0627\u0643\u0648\u0634\u0629 \u0641\u0627\u0634\u064a\u0648\u0646-tik (qte: 1)","status":"prete_a_expedier","global_status":"en_process","status_reason":[],"order_products":[]},{"tracking":"DHDCXBD26050612884554","reference":"leki253893","client":"Messaoud rania","phone":"0558453652","phone_2":null,"adresse":"Said hamdine","stop_desk":0,"commune_id":320,"wilaya_id":16,"montant":"2390","tarif_prestation":"350","tarif_retour":"0","type_id":1,"created_at":"2026-05-06 18:19:06","payment_id":null,"return_id":null,"process_state_id":1,"livred_at":null,"exchanged_at":null,"return_asked_at":null,"last_updated_at":"2026-05-06 18:19:06","products":"\u062d\u0632\u0645\u0629 \u0627\u0644\u0639\u0646\u0627\u064a\u0629 \u0628\u0627 \u0627\u0644\u0642\u062f\u0645\u064a\u0646 (qte: 1)","status":"prete_a_expedier","global_status":"en_process","status_reason":[],"order_products":[]},{"tracking":"DHDCXBD26050612884553","reference":"leki253886","client":"\u0627\u0644\u0639\u0628\u0627\u0633\u064a \u0643\u0644\u062b\u0648\u0645","phone":"0697435943","phone_2":null,"adresse":"Stop desk","stop_desk":1,"commune_id":705,"wilaya_id":47,"montant":"3750","tarif_prestation":"450","tarif_retour":"0","type_id":1,"created_at":"2026-05-06 18:19:05","payment_id":null,"return_id":null,"process_state_id":1,"livred_at":null,"exchanged_at":null,"return_asked_at":null,"last_updated_at":"2026-05-06 18:19:05","products":"\u0622\u0644\u0629 \u0627\u0644\u062e\u064a\u0627\u0637\u0629 mini (qte: 1)","status":"prete_a_expedier","global_status":"en_process","status_reason":[],"order_products":[]},{"tracking":"DHDCXBD26050612884552","reference":"leki253592","client":"\u0627\u0645 \u0645\u0648\u0633\u0649","phone":"0666515579","phone_2":null,"adresse":"a","stop_desk":0,"commune_id":182,"wilaya_id":42,"montant":"3800","tarif_prestation":"550","tarif_retour":"0","type_id":1,"created_at":"2026-05-06 18:19:05","payment_id":null,"return_id":null,"process_state_id":1,"livred_at":null,"exchanged_at":null,"return_asked_at":null,"last_updated_at":"2026-05-06 18:19:05","products":"\u062c\u0647\u0627\u0632 \u0634\u0641\u0637 \u0627\u0644\u0642\u0645\u0644 (qte: 2)","status":"prete_a_expedier","global_status":"en_process","status_reason":[],"order_products":[]},{"tracking":"DHDCXBD26050612884551","reference":"leki253888","client":"\u0641\u0631\u064a\u062f","phone":"0660879767","phone_2":null,"adresse":"Domicile","stop_desk":0,"commune_id":370,"wilaya_id":35,"montant":"2150","tarif_prestation":"550","tarif_retour":"0","type_id":1,"created_at":"2026-05-06 18:19:05","payment_id":null,"return_id":null,"process_state_id":1,"livred_at":null,"exchanged_at":null,"return_asked_at":null,"last_updated_at":"2026-05-06 18:19:05","products":"\u0648\u0633\u0627\u062f\u0629 \u0627\u0644\u0631\u0642\u0628\u0629 \u0627\u0644\u0647\u0648\u0627\u0626\u064a\u0629 \u0628\u0627 1500 \u062f\u062c (qte: 1)","status":"prete_a_expedier","global_status":"en_process","status_reason":[],"order_products":[]},{"tracking":"DHDCXBD26050612884550","reference":"leki253890","client":"Benmechiche Wassim","phone":"0792334698","phone_2":null,"adresse":"Sd ali mendjeli","stop_desk":1,"commune_id":476,"wilaya_id":25,"montant":"3140","tarif_prestation":"350","tarif_retour":"0","type_id":1,"created_at":"2026-05-06 18:19:04","payment_id":null,"return_id":null,"process_state_id":1,"livred_at":null,"exchanged_at":null,"return_asked_at":null,"last_updated_at":"2026-05-06 18:19:04","products":"\u0645\u0633\u062f\u0633 \u0627\u0644\u062a\u062f\u0644\u064a\u0643 \u0627\u0644\u0627\u062d\u062a\u0631\u0627\u0641\u064a-tik (qte: 1)","status":"prete_a_expedier","global_status":"en_process","status_reason":[],"order_products":[]},{"tracking":"DHDCXBD26050612884549","reference":"leki253327","client":"\u0645\u0627\u062c\u0649 \u0627\u064a\u0629","phone":"0779862700","phone_2":"0781629858","adresse":"_","stop_desk":0,"commune_id":353,"wilaya_id":42,"montant":"3340","tarif_prestation":"550","tarif_retour":"0","type_id":1,"created_at":"2026-05-06 18:19:04","payment_id":null,"return_id":null,"process_state_id":1,"livred_at":null,"exchanged_at":null,"return_asked_at":null,"last_updated_at":"2026-05-06 18:19:04","products":"\u0645\u0633\u062f\u0633 \u0627\u0644\u062a\u062f\u0644\u064a\u0643 \u0627\u0644\u0627\u062d\u062a\u0631\u0627\u0641\u064a-tik (qte: 1)","status":"prete_a_expedier","global_status":"en_process","status_reason":[],"order_products":[]},{"tracking":"DHDCXBD26050612884548","reference":"leki253439","client":"Adel bouderbal","phone":"0780272047","phone_2":null,"adresse":"Domicile","stop_desk":0,"commune_id":893,"wilaya_id":16,"montant":"2390","tarif_prestation":"350","tarif_retour":"0","type_id":1,"created_at":"2026-05-06 18:19:04","payment_id":null,"return_id":null,"process_state_id":1,"livred_at":null,"exchanged_at":null,"return_asked_at":null,"last_updated_at":"2026-05-06 18:19:04","products":"\u0633\u0627\u0643\u0648\u0634\u0629 \u0641\u0627\u0634\u064a\u0648\u0646-tik (qte: 1)","status":"prete_a_expedier","global_status":"en_process","status_reason":[],"order_products":[]},{"tracking":"DHDCXBD26050612884547","reference":"leki253596","client":"Fahima","phone":"0656192041","phone_2":null,"adresse":"Domicile","stop_desk":0,"commune_id":215,"wilaya_id":6,"montant":"2690","tarif_prestation":"550","tarif_retour":"0","type_id":1,"created_at":"2026-05-06 18:19:04","payment_id":null,"return_id":null,"process_state_id":1,"livred_at":null,"exchanged_at":null,"return_asked_at":null,"last_updated_at":"2026-05-06 18:19:04","products":"\u062c\u0647\u0627\u0632 \u0644\u064a\u0641\u062a\u064a\u0646\u063a \u0627\u0644\u0648\u062c\u0647 (qte: 1)","status":"prete_a_expedier","global_status":"en_process","status_reason":[],"order_products":[]},{"tracking":"DHDCXBD26050612884546","reference":"leki252967","client":"mostafa","phone":"0791083482","phone_2":null,"adresse":"\u00e0 c\u00f4t\u00e9 h\u00f4tel royal","stop_desk":0,"commune_id":1030,"wilaya_id":31,"montant":"2600","tarif_prestation":"550","tarif_retour":"0","type_id":1,"created_at":"2026-05-06 18:19:03","payment_id":null,"return_id":null,"process_state_id":1,"livred_at":null,"exchanged_at":null,"return_asked_at":null,"last_updated_at":"2026-05-06 18:19:03","products":"\u0633\u0627\u0643\u0648\u0634\u0629 \u0641\u0627\u0634\u064a\u0648\u0646-tik (qte: 1)","status":"prete_a_expedier","global_status":"en_process","status_reason":[],"order_products":[]},{"tracking":"DHDCXBD26050612884545","reference":"leki253898","client":"\u0632\u064a\u0627\u0646\u064a \u0637\u0647","phone":"0793722241","phone_2":null,"adresse":"Bir touta","stop_desk":1,"commune_id":322,"wilaya_id":16,"montant":"3100","tarif_prestation":"200","tarif_retour":"0","type_id":1,"created_at":"2026-05-06 18:19:03","payment_id":null,"return_id":null,"process_state_id":1,"livred_at":null,"exchanged_at":null,"return_asked_at":null,"last_updated_at":"2026-05-06 18:19:03","products":"\u0637\u0642\u0645 \u0633\u062c\u0627\u062f\u0627\u062a \u0635\u0644\u0627\u0629 (qte: 10)","status":"prete_a_expedier","global_status":"en_process","status_reason":[],"order_products":[]},{"tracking":"DHDCXBD26050612884544","reference":"leki253895","client":"\u0645\u062d\u0627\u0637 \u0646\u062c\u0648\u0649","phone":"0699530144","phone_2":null,"adresse":"a","stop_desk":1,"commune_id":993,"wilaya_id":43,"montant":"2440","tarif_prestation":"350","tarif_retour":"0","type_id":1,"created_at":"2026-05-06 18:19:03","payment_id":null,"return_id":null,"process_state_id":1,"livred_at":null,"exchanged_at":null,"return_asked_at":null,"last_updated_at":"2026-05-06 18:19:03","products":"\u0633\u0627\u0643\u0648\u0634\u0629  \u0641\u0627\u0634\u064a\u0648\u0646 (qte: 1)","status":"prete_a_expedier","global_status":"en_process","status_reason":[],"order_products":[]},{"tracking":"DHDCXBD26050612884543","reference":"leki253884","client":"berrahma","phone":"0554073420","phone_2":null,"adresse":"Sidi abdelah","stop_desk":0,"commune_id":1530,"wilaya_id":16,"montant":"1900","tarif_prestation":"350","tarif_retour":"0","type_id":1,"created_at":"2026-05-06 18:19:02","payment_id":null,"return_id":null,"process_state_id":1,"livred_at":null,"exchanged_at":null,"return_asked_at":null,"last_updated_at":"2026-05-06 18:19:02","products":"\u0648\u0633\u0627\u062f\u0629 \u0627\u0644\u0631\u0642\u0628\u0629 \u0627\u0644\u0647\u0648\u0627\u0626\u064a\u0629 \u0628\u0627 1500 \u062f\u062c (qte: 1)","status":"prete_a_expedier","global_status":"en_process","status_reason":[],"order_products":[]},{"tracking":"DHDCXBD26050612884542","reference":"leki253222","client":"Nesribe","phone":"0559595717","phone_2":null,"adresse":"Domi","stop_desk":0,"commune_id":1030,"wilaya_id":31,"montant":"3500","tarif_prestation":"550","tarif_retour":"0","type_id":1,"created_at":"2026-05-06 18:19:02","payment_id":null,"return_id":null,"process_state_id":1,"livred_at":null,"exchanged_at":null,"return_asked_at":null,"last_updated_at":"2026-05-06 18:19:02","products":"\u062d\u0627\u0645\u0644 \u0645\u064a\u0643\u0631\u0648\u064a\u0641 \u0628\u0627 \u0637\u0627\u0628\u0642\u064a\u0646 (qte: 1)","status":"prete_a_expedier","global_status":"en_process","status_reason":[],"order_products":[]},{"tracking":"DHDCXBD26050612884541","reference":"leki253433","client":"\u0648\u0644\u064a\u062f","phone":"0663275733","phone_2":null,"adresse":"Bechar","stop_desk":1,"commune_id":209,"wilaya_id":8,"montant":"3000","tarif_prestation":"600","tarif_retour":"0","type_id":1,"created_at":"2026-05-06 18:19:02","payment_id":null,"return_id":null,"process_state_id":1,"livred_at":null,"exchanged_at":null,"return_asked_at":null,"last_updated_at":"2026-05-06 18:19:02","products":"\u0643\u0634\u0627\u0641 \u0627\u0636\u0627\u0621\u0629 \u062c\u062f \u0642\u0648\u064a (qte: 1)","status":"prete_a_expedier","global_status":"en_process","status_reason":[],"order_products":[]},{"tracking":"DHDCXBD26050612884540","reference":"leki253896","client":"Adel","phone":"0550938783","phone_2":null,"adresse":"O","stop_desk":0,"commune_id":1134,"wilaya_id":19,"montant":"3650","tarif_prestation":"550","tarif_retour":"0","type_id":1,"created_at":"2026-05-06 18:19:01","payment_id":null,"return_id":null,"process_state_id":1,"livred_at":null,"exchanged_at":null,"return_asked_at":null,"last_updated_at":"2026-05-06 18:19:01","products":"\u0634\u0648\u0627\u064a\u0629 \u0627\u0644\u0641\u062d\u0645 \u0627\u0644\u0645\u062d\u0645\u0648\u0644\u0629 \u0627\u0644\u0642\u0627\u0628\u0644\u0629 \u0644\u0644\u0637\u064a (qte: 1)","status":"prete_a_expedier","global_status":"en_process","status_reason":[],"order_products":[]},{"tracking":"DHDCXBD26050612884538","reference":"leki253851","client":"\u062e\u062b\u064a\u0631 \u0645\u062d\u0645\u062f","phone":"0797432085","phone_2":null,"adresse":"Mareva","stop_desk":1,"commune_id":1030,"wilaya_id":31,"montant":"3090","tarif_prestation":"350","tarif_retour":"0","type_id":1,"created_at":"2026-05-06 18:19:01","payment_id":null,"return_id":null,"process_state_id":1,"livred_at":null,"exchanged_at":null,"return_asked_at":null,"last_updated_at":"2026-05-06 18:19:01","products":"\u0645\u0633\u062f\u0633 \u0627\u0644\u062a\u062f\u0644\u064a\u0643 \u0627\u0644\u0627\u062d\u062a\u0631\u0627\u0641\u064a (qte: 1)","status":"prete_a_expedier","global_status":"en_process","status_reason":[],"order_products":[]}],"first_page_url":"https:\/\/platform.dhd-dz.com\/api\/v1\/get\/orders?page=1","from":1,"last_page":12,"last_page_url":"https:\/\/platform.dhd-dz.com\/api\/v1\/get\/orders?page=12","links":[{"url":null,"label":"&laquo; Pr\u00e9c\u00e9dent","active":false},{"url":"https:\/\/platform.dhd-dz.com\/api\/v1\/get\/orders?page=1","label":"1","active":true},{"url":"https:\/\/platform.dhd-dz.com\/api\/v1\/get\/orders?page=2","label":"2","active":false},{"url":"https:\/\/platform.dhd-dz.com\/api\/v1\/get\/orders?page=3","label":"3","active":false},{"url":"https:\/\/platform.dhd-dz.com\/api\/v1\/get\/orders?page=4","label":"4","active":false},{"url":"https:\/\/platform.dhd-dz.com\/api\/v1\/get\/orders?page=5","label":"5","active":false},{"url":"https:\/\/platform.dhd-dz.com\/api\/v1\/get\/orders?page=6","label":"6","active":false},{"url":"https:\/\/platform.dhd-dz.com\/api\/v1\/get\/orders?page=7","label":"7","active":false},{"url":"https:\/\/platform.dhd-dz.com\/api\/v1\/get\/orders?page=8","label":"8","active":false},{"url":"https:\/\/platform.dhd-dz.com\/api\/v1\/get\/orders?page=9","label":"9","active":false},{"url":"https:\/\/platform.dhd-dz.com\/api\/v1\/get\/orders?page=10","label":"10","active":false},{"url":"https:\/\/platform.dhd-dz.com\/api\/v1\/get\/orders?page=11","label":"11","active":false},{"url":"https:\/\/platform.dhd-dz.com\/api\/v1\/get\/orders?page=12","label":"12","active":false},{"url":"https:\/\/platform.dhd-dz.com\/api\/v1\/get\/orders?page=2","label":"Suivant &raquo;","active":false}],"next_page_url":"https:\/\/platform.dhd-dz.com\/api\/v1\/get\/orders?page=2","path":"https:\/\/platform.dhd-dz.com\/api\/v1\/get\/orders","per_page":40,"prev_page_url":null,"to":40,"total":444}