{"current_page":7,"data":[{"tracking":"DHDCXBD26050612854457","reference":"leki253557","client":"Khelladi nacera","phone":"0784545984","phone_2":null,"adresse":"Akbou","stop_desk":0,"commune_id":153,"wilaya_id":6,"montant":"1950","tarif_prestation":"550","tarif_retour":"0","type_id":1,"created_at":"2026-05-06 11:07:00","payment_id":null,"return_id":null,"process_state_id":60,"livred_at":null,"exchanged_at":null,"return_asked_at":null,"last_updated_at":"2026-05-06 15:34:38","products":"\u0645\u0646\u0634\u0631 \u0627\u0644\u0645\u0644\u0627\u0628\u0633 \u0627\u0644\u0642\u0627\u0628\u0644 \u0644\u0644\u0637\u064a+\u062e\u064a\u0637 10 \u0623\u0645\u062a\u0627\u0631 (qte: 1)","status":"vers_hub","global_status":"en_process","status_reason":[],"order_products":[]},{"tracking":"DHDCXBD26050612854456","reference":"leki253444","client":"\u062f\u0627\u064a\u062f \u062d\u0633\u0627\u0646","phone":"0550268397","phone_2":null,"adresse":"Domicile","stop_desk":0,"commune_id":1492,"wilaya_id":15,"montant":"2690","tarif_prestation":"550","tarif_retour":"0","type_id":1,"created_at":"2026-05-06 11:07:00","payment_id":null,"return_id":null,"process_state_id":60,"livred_at":null,"exchanged_at":null,"return_asked_at":null,"last_updated_at":"2026-05-06 17:28:08","products":"\u062a\u0648\u0646\u062f\u0648\u0632 3 \u0641\u064a 1 \u0645\u0646 \u0627\u0644\u0634\u0631\u0643\u0629 \u0627\u0644\u0639\u0627\u0644\u0645\u064a\u0629 kemei (qte: 1)","status":"vers_hub","global_status":"en_process","status_reason":[],"order_products":[]},{"tracking":"DHDCXBD26050612854455","reference":"leki253478","client":"\u0639\u0628\u062f\u0648 \u0639\u0628\u062f\u0627\u0644\u0628\u0627\u0642\u064a","phone":"0791904584","phone_2":null,"adresse":"El achir","stop_desk":0,"commune_id":550,"wilaya_id":34,"montant":"2590","tarif_prestation":"600","tarif_retour":"0","type_id":1,"created_at":"2026-05-06 11:07:00","payment_id":null,"return_id":null,"process_state_id":60,"livred_at":null,"exchanged_at":null,"return_asked_at":null,"last_updated_at":"2026-05-06 15:37:27","products":"\u0633\u0627\u0643\u0648\u0634\u0629  \u0641\u0627\u0634\u064a\u0648\u0646 (qte: 1)","status":"vers_hub","global_status":"en_process","status_reason":[],"order_products":[]},{"tracking":"DHDCXBD26050612854454","reference":"leki253568","client":"\u0627\u0645\u0628\u0627\u0631\u0643","phone":"0654731994","phone_2":null,"adresse":"Sd","stop_desk":1,"commune_id":42,"wilaya_id":44,"montant":"3090","tarif_prestation":"350","tarif_retour":"0","type_id":1,"created_at":"2026-05-06 11:06:59","payment_id":null,"return_id":null,"process_state_id":60,"livred_at":null,"exchanged_at":null,"return_asked_at":null,"last_updated_at":"2026-05-06 16:21:41","products":"\u0645\u0633\u062f\u0633 \u0627\u0644\u062a\u062f\u0644\u064a\u0643 \u0627\u0644\u0627\u062d\u062a\u0631\u0627\u0641\u064a (qte: 1)","status":"vers_hub","global_status":"en_process","status_reason":[],"order_products":[]},{"tracking":"DHDCXBD26050612854453","reference":"leki253521","client":"Brahim","phone":"0798817715","phone_2":null,"adresse":"Sd","stop_desk":1,"commune_id":1189,"wilaya_id":48,"montant":"2650","tarif_prestation":"350","tarif_retour":"0","type_id":1,"created_at":"2026-05-06 11:06:59","payment_id":null,"return_id":null,"process_state_id":60,"livred_at":null,"exchanged_at":null,"return_asked_at":null,"last_updated_at":"2026-05-06 17:27:37","products":"\u0627\u062d\u0628\u0627\u0644 \u0627\u0644\u0645\u0642\u0627\u0648\u0645\u0629 \u0627\u0644\u0631\u064a\u0627\u0636\u064a\u0629 (qte: 1)","status":"vers_hub","global_status":"en_process","status_reason":[],"order_products":[]},{"tracking":"DHDCXBD26050612854452","reference":"leki253549","client":"Islam","phone":"0775458587","phone_2":null,"adresse":"a","stop_desk":0,"commune_id":893,"wilaya_id":16,"montant":"1600","tarif_prestation":"350","tarif_retour":"0","type_id":1,"created_at":"2026-05-06 11:06:59","payment_id":null,"return_id":null,"process_state_id":60,"livred_at":null,"exchanged_at":null,"return_asked_at":null,"last_updated_at":"2026-05-06 15:36:34","products":"\u062d\u0632\u0627\u0645 \u0634\u062f \u0627\u0644\u0638\u0647\u0631 tik (qte: 1)","status":"vers_hub","global_status":"en_process","status_reason":[],"order_products":[]},{"tracking":"DHDCXBD26050612854451","reference":"leki253317","client":"\u064a\u062d\u064a\u0627\u0648\u064a","phone":"0797537979","phone_2":null,"adresse":".","stop_desk":0,"commune_id":476,"wilaya_id":25,"montant":"2300","tarif_prestation":"550","tarif_retour":"0","type_id":1,"created_at":"2026-05-06 11:06:58","payment_id":null,"return_id":null,"process_state_id":60,"livred_at":null,"exchanged_at":null,"return_asked_at":null,"last_updated_at":"2026-05-06 16:22:09","products":"\u0637\u0642\u0645 \u0633\u062c\u0627\u062f\u0627\u062a \u0635\u0644\u0627\u0629 (qte: 5)","status":"vers_hub","global_status":"en_process","status_reason":[],"order_products":[]},{"tracking":"DHDCXBD26050612854450","reference":"leki253590","client":"\u0643\u0645\u0627\u0644 \u0627\u0648\u062d\u0628\u0627\u0628","phone":"0676869393","phone_2":null,"adresse":"Teniet el abed","stop_desk":0,"commune_id":1438,"wilaya_id":5,"montant":"2150","tarif_prestation":"550","tarif_retour":"0","type_id":1,"created_at":"2026-05-06 11:06:58","payment_id":null,"return_id":null,"process_state_id":60,"livred_at":null,"exchanged_at":null,"return_asked_at":null,"last_updated_at":"2026-05-06 17:25:27","products":"\u062c\u0647\u0627\u0632 \u0634\u0641\u0637 \u0627\u0644\u0642\u0645\u0644 (qte: 1)","status":"vers_hub","global_status":"en_process","status_reason":[],"order_products":[]},{"tracking":"DHDCXBD26050612854449","reference":"leki253387","client":"Sarah","phone":"0782560587","phone_2":null,"adresse":"Domicile","stop_desk":0,"commune_id":1006,"wilaya_id":27,"montant":"2650","tarif_prestation":"600","tarif_retour":"0","type_id":1,"created_at":"2026-05-06 11:06:58","payment_id":null,"return_id":null,"process_state_id":60,"livred_at":null,"exchanged_at":null,"return_asked_at":null,"last_updated_at":"2026-05-06 16:19:36","products":"\u062d\u0632\u0645\u0629 \u0627\u0644\u0639\u0646\u0627\u064a\u0629 \u0628\u0627 \u0627\u0644\u0642\u062f\u0645\u064a\u0646 (qte: 1)","status":"vers_hub","global_status":"en_process","status_reason":[],"order_products":[]},{"tracking":"DHDCXBD26050612854448","reference":"leki253456","client":"Bradai asmaa","phone":"0775435287","phone_2":null,"adresse":"\u062d\u064a \u0633\u064a\u062f\u064a \u0627\u0644\u0647\u0648\u0627\u0631\u064a","stop_desk":0,"commune_id":1030,"wilaya_id":31,"montant":"2590","tarif_prestation":"550","tarif_retour":"0","type_id":1,"created_at":"2026-05-06 11:06:57","payment_id":null,"return_id":null,"process_state_id":60,"livred_at":null,"exchanged_at":null,"return_asked_at":null,"last_updated_at":"2026-05-06 16:19:06","products":"\u062d\u0632\u0645\u0629 \u0627\u0644\u0639\u0646\u0627\u064a\u0629 \u0628\u0627 \u0627\u0644\u0642\u062f\u0645\u064a\u0646 (qte: 1)","status":"vers_hub","global_status":"en_process","status_reason":[],"order_products":[]},{"tracking":"DHDCXBD26050612854447","reference":"leki253348","client":"Boudjadi Wassim","phone":"0792143057","phone_2":null,"adresse":"a","stop_desk":1,"commune_id":1336,"wilaya_id":21,"montant":"3100","tarif_prestation":"350","tarif_retour":"0","type_id":1,"created_at":"2026-05-06 11:06:57","payment_id":null,"return_id":null,"process_state_id":60,"livred_at":null,"exchanged_at":null,"return_asked_at":null,"last_updated_at":"2026-05-06 16:20:35","products":"\u0645\u0633\u062f\u0633 \u0627\u0644\u062a\u062f\u0644\u064a\u0643 \u0627\u0644\u0627\u062d\u062a\u0631\u0627\u0641\u064a-tik (qte: 1)","status":"vers_hub","global_status":"en_process","status_reason":[],"order_products":[]},{"tracking":"DHDCXBD26050612854446","reference":"leki253333","client":"\u062d\u0645\u0648\u062f\u0629 \u064a\u0648\u0633\u0641","phone":"0675812206","phone_2":null,"adresse":".","stop_desk":1,"commune_id":334,"wilaya_id":34,"montant":"1650","tarif_prestation":"350","tarif_retour":"0","type_id":1,"created_at":"2026-05-06 11:06:57","payment_id":null,"return_id":null,"process_state_id":60,"livred_at":null,"exchanged_at":null,"return_asked_at":null,"last_updated_at":"2026-05-06 15:36:15","products":"\u062d\u0632\u0627\u0645 \u0634\u062f \u0627\u0644\u0638\u0647\u0631 tik (qte: 1)","status":"vers_hub","global_status":"en_process","status_reason":[],"order_products":[]},{"tracking":"DHDCXBD26050612854445","reference":"leki253422","client":"\u0634\u0628\u0648\u0628 \u0646\u0635\u064a\u0631\u0629","phone":"0771620909","phone_2":null,"adresse":"Domi","stop_desk":0,"commune_id":1451,"wilaya_id":38,"montant":"4200","tarif_prestation":"600","tarif_retour":"0","type_id":1,"created_at":"2026-05-06 11:06:56","payment_id":null,"return_id":null,"process_state_id":60,"livred_at":null,"exchanged_at":null,"return_asked_at":null,"last_updated_at":"2026-05-06 15:34:52","products":"\u0645\u0631\u062a\u0628 \u062e\u0627\u0635 \u0628\u0627\u0644\u063a\u0633\u0627\u0644\u0629 (qte: 1)","status":"vers_hub","global_status":"en_process","status_reason":[],"order_products":[]},{"tracking":"DHDCXBD26050612854444","reference":"leki253606","client":"Aziz","phone":"0776121338","phone_2":null,"adresse":"Sd","stop_desk":1,"commune_id":1006,"wilaya_id":27,"montant":"1600","tarif_prestation":"350","tarif_retour":"0","type_id":1,"created_at":"2026-05-06 11:06:56","payment_id":null,"return_id":null,"process_state_id":60,"livred_at":null,"exchanged_at":null,"return_asked_at":null,"last_updated_at":"2026-05-06 15:36:19","products":"\u062d\u0632\u0627\u0645 \u0634\u062f \u0627\u0644\u0638\u0647\u0631 tik (qte: 1)","status":"vers_hub","global_status":"en_process","status_reason":[],"order_products":[]},{"tracking":"DHDCXBD26050612854443","reference":"leki253475","client":"\u0645\u062d\u0645\u062f","phone":"0551191725","phone_2":null,"adresse":"_","stop_desk":0,"commune_id":1189,"wilaya_id":48,"montant":"2200","tarif_prestation":"600","tarif_retour":"0","type_id":1,"created_at":"2026-05-06 11:06:56","payment_id":null,"return_id":null,"process_state_id":60,"livred_at":null,"exchanged_at":null,"return_asked_at":null,"last_updated_at":"2026-05-06 17:25:25","products":"\u0646\u0635\u0641 \u0627\u0644\u0633\u0627\u0642 (qte: 2)","status":"vers_hub","global_status":"en_process","status_reason":[],"order_products":[]},{"tracking":"DHDCXBD26050612854442","reference":"leki253605","client":"Abdal\u00e0h","phone":"0659853788","phone_2":null,"adresse":".","stop_desk":0,"commune_id":573,"wilaya_id":16,"montant":"3090","tarif_prestation":"350","tarif_retour":"0","type_id":1,"created_at":"2026-05-06 11:06:55","payment_id":null,"return_id":null,"process_state_id":60,"livred_at":null,"exchanged_at":null,"return_asked_at":null,"last_updated_at":"2026-05-06 16:21:44","products":"\u0645\u0633\u062f\u0633 \u0627\u0644\u062a\u062f\u0644\u064a\u0643 \u0627\u0644\u0627\u062d\u062a\u0631\u0627\u0641\u064a (qte: 1)","status":"vers_hub","global_status":"en_process","status_reason":[],"order_products":[]},{"tracking":"DHDCXBD26050612854441","reference":"leki253445","client":"Badreddine","phone":"0555572983","phone_2":null,"adresse":"\u00c0 domicile","stop_desk":0,"commune_id":192,"wilaya_id":16,"montant":"1600","tarif_prestation":"350","tarif_retour":"0","type_id":1,"created_at":"2026-05-06 11:06:55","payment_id":null,"return_id":null,"process_state_id":60,"livred_at":null,"exchanged_at":null,"return_asked_at":null,"last_updated_at":"2026-05-06 17:27:25","products":"Led 3 Pcs (qte: 1)","status":"vers_hub","global_status":"en_process","status_reason":[],"order_products":[]},{"tracking":"DHDCXBD26050612854440","reference":"leki253625","client":"\u062f\u0628\u0627\u0628\u064a","phone":"0554097974","phone_2":null,"adresse":"Sd","stop_desk":1,"commune_id":215,"wilaya_id":6,"montant":"2450","tarif_prestation":"350","tarif_retour":"0","type_id":1,"created_at":"2026-05-06 11:06:55","payment_id":null,"return_id":null,"process_state_id":60,"livred_at":null,"exchanged_at":null,"return_asked_at":null,"last_updated_at":"2026-05-06 17:27:13","products":"\u0645\u0639\u0642\u0645 \u0641\u0631\u0634\u0627\u0629 \u0627\u0644\u0623\u0633\u0646\u0627\u0646 (qte: 1)","status":"vers_hub","global_status":"en_process","status_reason":[],"order_products":[]},{"tracking":"DHDCXBD26050612854439","reference":"leki253429","client":"AMOUMENE","phone":"0654928958","phone_2":null,"adresse":"Stop desk","stop_desk":1,"commune_id":1036,"wilaya_id":30,"montant":"1950","tarif_prestation":"450","tarif_retour":"0","type_id":1,"created_at":"2026-05-06 11:06:55","payment_id":null,"return_id":null,"process_state_id":60,"livred_at":null,"exchanged_at":null,"return_asked_at":null,"last_updated_at":"2026-05-06 17:27:14","products":"\u0646\u064a\u0641\u0648 \u0644\u0632\u0627\u0631 4 \u0641\u064a 1 (qte: 1)","status":"vers_hub","global_status":"en_process","status_reason":[],"order_products":[]},{"tracking":"DHDCXBD26050612854438","reference":"leki253410","client":"\u0631\u064a\u0627\u0636","phone":"0698560194","phone_2":null,"adresse":"Domicile","stop_desk":0,"commune_id":402,"wilaya_id":44,"montant":"3100","tarif_prestation":"550","tarif_retour":"0","type_id":1,"created_at":"2026-05-06 11:06:54","payment_id":null,"return_id":null,"process_state_id":60,"livred_at":null,"exchanged_at":null,"return_asked_at":null,"last_updated_at":"2026-05-06 17:21:01","products":"\u062c\u0647\u0627\u0632 \u0627\u0644\u0631\u064a\u0627\u0636\u0629 \u0627\u0644\u0634\u0627\u0645\u0644 (qte: 1)","status":"vers_hub","global_status":"en_process","status_reason":[],"order_products":[]},{"tracking":"DHDCXBD26050612854437","reference":"leki253453","client":"Dounia rami","phone":"0562219479","phone_2":null,"adresse":"_","stop_desk":0,"commune_id":881,"wilaya_id":9,"montant":"3200","tarif_prestation":"350","tarif_retour":"0","type_id":1,"created_at":"2026-05-06 11:06:54","payment_id":null,"return_id":null,"process_state_id":60,"livred_at":null,"exchanged_at":null,"return_asked_at":null,"last_updated_at":"2026-05-06 16:21:57","products":"\u0637\u0642\u0645 \u0633\u062c\u0627\u062f\u0627\u062a \u0635\u0644\u0627\u0629 (qte: 10)","status":"vers_hub","global_status":"en_process","status_reason":[],"order_products":[]},{"tracking":"DHDCXBD26050612854436","reference":"leki253635","client":"\u0627\u0634\u0631\u0641 \u0639\u062f\u0628\u064a","phone":"0655101703","phone_2":null,"adresse":"Sidi Amar","stop_desk":0,"commune_id":1262,"wilaya_id":23,"montant":"1900","tarif_prestation":"550","tarif_retour":"0","type_id":1,"created_at":"2026-05-06 11:06:54","payment_id":null,"return_id":null,"process_state_id":60,"livred_at":null,"exchanged_at":null,"return_asked_at":null,"last_updated_at":"2026-05-06 15:36:12","products":"\u062d\u0632\u0627\u0645 \u0634\u062f \u0627\u0644\u0638\u0647\u0631 tik (qte: 1)","status":"vers_hub","global_status":"en_process","status_reason":[],"order_products":[]},{"tracking":"DHDCXBD26050612854435","reference":"leki253461","client":"\u0628\u0631\u0627\u0647\u064a\u0645\u064a \u0633\u0647\u064a\u0644","phone":"0770178003","phone_2":null,"adresse":".","stop_desk":0,"commune_id":261,"wilaya_id":2,"montant":"2150","tarif_prestation":"550","tarif_retour":"0","type_id":1,"created_at":"2026-05-06 11:06:53","payment_id":null,"return_id":null,"process_state_id":60,"livred_at":null,"exchanged_at":null,"return_asked_at":null,"last_updated_at":"2026-05-06 17:28:00","products":"\u0648\u0633\u0627\u062f\u0629 \u0627\u0644\u0631\u0642\u0628\u0629 \u0627\u0644\u0647\u0648\u0627\u0626\u064a\u0629 \u0628\u0627 1500 \u062f\u062c (qte: 1)","status":"vers_hub","global_status":"en_process","status_reason":[],"order_products":[]},{"tracking":"DHDCXBD26050612854434","reference":"leki253630","client":"MOHAMED REDA","phone":"0560000205","phone_2":null,"adresse":"Domi","stop_desk":0,"commune_id":403,"wilaya_id":35,"montant":"2590","tarif_prestation":"550","tarif_retour":"0","type_id":1,"created_at":"2026-05-06 11:06:53","payment_id":null,"return_id":null,"process_state_id":60,"livred_at":null,"exchanged_at":null,"return_asked_at":null,"last_updated_at":"2026-05-06 15:37:36","products":"\u0633\u0627\u0643\u0648\u0634\u0629  \u0641\u0627\u0634\u064a\u0648\u0646 (qte: 1)","status":"vers_hub","global_status":"en_process","status_reason":[],"order_products":[]},{"tracking":"DHDCXBD26050612854433","reference":"leki253637","client":"YAHIA ESSAID","phone":"0770860812","phone_2":null,"adresse":"\u00b4","stop_desk":0,"commune_id":169,"wilaya_id":6,"montant":"7000","tarif_prestation":"550","tarif_retour":"0","type_id":1,"created_at":"2026-05-06 11:06:53","payment_id":null,"return_id":null,"process_state_id":60,"livred_at":null,"exchanged_at":null,"return_asked_at":null,"last_updated_at":"2026-05-06 15:34:50","products":"\u0645\u0631\u062a\u0628 \u062e\u0627\u0635 \u0628\u0627\u0644\u063a\u0633\u0627\u0644\u0629 (qte: 1),\u0645\u0631\u062a\u0628 \u062e\u0627\u0635 \u0628\u0627 \u0627\u0644\u0645\u0631\u062d\u0627\u0636 (qte: 1 | option: \u062e\u0627\u0635\u0629 \u0628\u0627\u0644\u0645\u0631\u062d\u0627\u0636)","status":"vers_hub","global_status":"en_process","status_reason":[],"order_products":[]},{"tracking":"DHDCXBD26050612854432","reference":"leki253358","client":"\u0634\u0627\u0647\u062f \u0635\u0641\u0627\u0621","phone":"0656077007","phone_2":null,"adresse":".","stop_desk":0,"commune_id":221,"wilaya_id":22,"montant":"2300","tarif_prestation":"600","tarif_retour":"0","type_id":1,"created_at":"2026-05-06 11:06:52","payment_id":null,"return_id":null,"process_state_id":60,"livred_at":null,"exchanged_at":null,"return_asked_at":null,"last_updated_at":"2026-05-06 17:25:36","products":"\u062c\u0647\u0627\u0632 \u0634\u0641\u0637 \u0627\u0644\u0642\u0645\u0644 (qte: 1)","status":"vers_hub","global_status":"en_process","status_reason":[],"order_products":[]},{"tracking":"DHDCXBD26050612854431","reference":"leki253571","client":"\u0627\u0633\u0645\u0627\u0648\u064a \u0645\u0633\u0639\u0648\u062f","phone":"0559734369","phone_2":null,"adresse":"a","stop_desk":1,"commune_id":705,"wilaya_id":47,"montant":"1650","tarif_prestation":"450","tarif_retour":"0","type_id":1,"created_at":"2026-05-06 11:06:52","payment_id":null,"return_id":null,"process_state_id":60,"livred_at":null,"exchanged_at":null,"return_asked_at":null,"last_updated_at":"2026-05-06 15:35:54","products":"\u062d\u0632\u0627\u0645 \u0634\u062f \u0627\u0644\u0638\u0647\u0631 (qte: 1)","status":"vers_hub","global_status":"en_process","status_reason":[],"order_products":[]},{"tracking":"DHDCXBD26050612854430","reference":"leki253399","client":"\u0644\u0627\u0634\u0628\u0648\u0631 \u0645\u0635\u0637\u0641\u0649","phone":"0673283799","phone_2":null,"adresse":"Domicile","stop_desk":0,"commune_id":867,"wilaya_id":26,"montant":"1690","tarif_prestation":"550","tarif_retour":"0","type_id":1,"created_at":"2026-05-06 11:06:52","payment_id":null,"return_id":null,"process_state_id":60,"livred_at":null,"exchanged_at":null,"return_asked_at":null,"last_updated_at":"2026-05-06 17:28:27","products":"\u0645\u0631\u0634 \u0639\u0627\u0644\u064a \u0627\u0644\u0636\u063a\u0637 (qte: 1)","status":"vers_hub","global_status":"en_process","status_reason":[],"order_products":[]},{"tracking":"DHDCXBD26050612854429","reference":"leki253608","client":"\u0645\u0635\u0637\u0641\u0649","phone":"0556727164","phone_2":null,"adresse":"Ain naadja","stop_desk":0,"commune_id":508,"wilaya_id":16,"montant":"1600","tarif_prestation":"350","tarif_retour":"0","type_id":1,"created_at":"2026-05-06 11:06:51","payment_id":null,"return_id":null,"process_state_id":60,"livred_at":null,"exchanged_at":null,"return_asked_at":null,"last_updated_at":"2026-05-06 15:37:20","products":"\u062d\u0632\u0627\u0645 \u0634\u062f \u0627\u0644\u0638\u0647\u0631 tik (qte: 1)","status":"vers_hub","global_status":"en_process","status_reason":[],"order_products":[]},{"tracking":"DHDCXBD26050612854428","reference":"leki253400","client":"\u062d\u0645\u0627\u0646\u064a","phone":"0770628673","phone_2":null,"adresse":".","stop_desk":1,"commune_id":391,"wilaya_id":10,"montant":"1900","tarif_prestation":"350","tarif_retour":"0","type_id":1,"created_at":"2026-05-06 11:06:51","payment_id":null,"return_id":null,"process_state_id":60,"livred_at":null,"exchanged_at":null,"return_asked_at":null,"last_updated_at":"2026-05-06 18:09:26","products":"\u0645\u0635\u0628\u0627\u062d \u062c\u062f\u0627\u0631\u064a \u0643\u0627\u0645\u064a\u0631\u0627 (qte: 1)","status":"vers_hub","global_status":"en_process","status_reason":[],"order_products":[]},{"tracking":"DHDCXBD26050612854427","reference":"leki253484","client":"\u0645\u0635\u0637\u0641\u0649","phone":"0562650811","phone_2":null,"adresse":".","stop_desk":1,"commune_id":652,"wilaya_id":58,"montant":"2050","tarif_prestation":"450","tarif_retour":"0","type_id":1,"created_at":"2026-05-06 11:06:51","payment_id":null,"return_id":null,"process_state_id":60,"livred_at":null,"exchanged_at":null,"return_asked_at":null,"last_updated_at":"2026-05-06 17:27:19","products":"Led auto (qte: 1)","status":"vers_hub","global_status":"en_process","status_reason":[],"order_products":[]},{"tracking":"DHDCXBD26050612854426","reference":"leki253620","client":"\u0645\u062c\u064a\u062f","phone":"0774258105","phone_2":null,"adresse":"\u00b4","stop_desk":1,"commune_id":334,"wilaya_id":34,"montant":"2000","tarif_prestation":"350","tarif_retour":"0","type_id":1,"created_at":"2026-05-06 11:06:50","payment_id":null,"return_id":null,"process_state_id":60,"livred_at":null,"exchanged_at":null,"return_asked_at":null,"last_updated_at":"2026-05-06 17:25:30","products":"\u062c\u0647\u0627\u0632 \u0634\u0641\u0637 \u0627\u0644\u0642\u0645\u0644 (qte: 1)","status":"vers_hub","global_status":"en_process","status_reason":[],"order_products":[]},{"tracking":"DHDCXBD26050612854425","reference":"leki253441","client":"Youcef","phone":"0676757724","phone_2":null,"adresse":"*","stop_desk":1,"commune_id":1036,"wilaya_id":30,"montant":"2650","tarif_prestation":"450","tarif_retour":"0","type_id":1,"created_at":"2026-05-06 11:06:50","payment_id":null,"return_id":null,"process_state_id":60,"livred_at":null,"exchanged_at":null,"return_asked_at":null,"last_updated_at":"2026-05-06 17:27:35","products":"\u0627\u062d\u0628\u0627\u0644 \u0627\u0644\u0645\u0642\u0627\u0648\u0645\u0629 \u0627\u0644\u0631\u064a\u0627\u0636\u064a\u0629 (qte: 1)","status":"vers_hub","global_status":"en_process","status_reason":[],"order_products":[]},{"tracking":"DHDCXBD26050612854424","reference":"leki253388","client":"\u0632\u0643\u0631\u064a \u0628\u0648\u0641\u0644\u062c\u0629","phone":"0657087021","phone_2":null,"adresse":"Stop desk","stop_desk":1,"commune_id":209,"wilaya_id":8,"montant":"2500","tarif_prestation":"600","tarif_retour":"0","type_id":1,"created_at":"2026-05-06 11:06:50","payment_id":null,"return_id":null,"process_state_id":60,"livred_at":null,"exchanged_at":null,"return_asked_at":null,"last_updated_at":"2026-05-06 15:37:40","products":"\u0633\u0627\u0643\u0648\u0634\u0629  \u0641\u0627\u0634\u064a\u0648\u0646 (qte: 1)","status":"vers_hub","global_status":"en_process","status_reason":[],"order_products":[]},{"tracking":"DHDCXBD26050612854423","reference":"leki253407","client":"Aouam","phone":"0555531062","phone_2":null,"adresse":"Stop desk","stop_desk":1,"commune_id":1492,"wilaya_id":15,"montant":"4450","tarif_prestation":"350","tarif_retour":"0","type_id":1,"created_at":"2026-05-06 11:06:49","payment_id":null,"return_id":null,"process_state_id":60,"livred_at":null,"exchanged_at":null,"return_asked_at":null,"last_updated_at":"2026-05-06 17:27:04","products":"\u0645\u0635\u0628\u0627\u062d \u062c\u062f\u0627\u0631\u064a \u0643\u0627\u0645\u064a\u0631\u0627 (qte: 3)","status":"vers_hub","global_status":"en_process","status_reason":[],"order_products":[]},{"tracking":"DHDCXBD26050612854422","reference":"leki253430","client":"\u0623\u0645\u064a\u0646","phone":"0553073387","phone_2":null,"adresse":"*","stop_desk":0,"commune_id":841,"wilaya_id":35,"montant":"1850","tarif_prestation":"550","tarif_retour":"0","type_id":1,"created_at":"2026-05-06 11:06:49","payment_id":null,"return_id":null,"process_state_id":60,"livred_at":null,"exchanged_at":null,"return_asked_at":null,"last_updated_at":"2026-05-06 15:36:43","products":"\u062d\u0632\u0627\u0645 \u0634\u062f \u0627\u0644\u0638\u0647\u0631 tik (qte: 1)","status":"vers_hub","global_status":"en_process","status_reason":[],"order_products":[]},{"tracking":"DHDCXBD26050612854421","reference":"leki253377","client":"\u0632\u064a\u0646\u0648","phone":"0660919833","phone_2":null,"adresse":"Domicile","stop_desk":0,"commune_id":1536,"wilaya_id":25,"montant":"2100","tarif_prestation":"550","tarif_retour":"0","type_id":1,"created_at":"2026-05-06 11:06:49","payment_id":null,"return_id":null,"process_state_id":60,"livred_at":null,"exchanged_at":null,"return_asked_at":null,"last_updated_at":"2026-05-06 17:28:31","products":"\u062e\u0631\u0637\u0648\u0645 \u0645\u064a\u0627\u0647 \u0642\u0627\u0628\u0644 \u0644\u0644\u062a\u0645\u062f\u062f (qte: 1)","status":"vers_hub","global_status":"en_process","status_reason":[],"order_products":[]},{"tracking":"DHDCXBD26050612854420","reference":"leki253639","client":"Gasmi","phone":"0793224450","phone_2":null,"adresse":"Plateau","stop_desk":0,"commune_id":1030,"wilaya_id":31,"montant":"3100","tarif_prestation":"550","tarif_retour":"0","type_id":1,"created_at":"2026-05-06 11:06:48","payment_id":null,"return_id":null,"process_state_id":60,"livred_at":null,"exchanged_at":null,"return_asked_at":null,"last_updated_at":"2026-05-06 17:21:01","products":"\u062c\u0647\u0627\u0632 \u0627\u0644\u0631\u064a\u0627\u0636\u0629 \u0627\u0644\u0634\u0627\u0645\u0644 (qte: 1)","status":"vers_hub","global_status":"en_process","status_reason":[],"order_products":[]},{"tracking":"DHDCXBD26050612854419","reference":"leki253378","client":"Deghaimi","phone":"0662549923","phone_2":null,"adresse":"\u00c0 domicile","stop_desk":0,"commune_id":803,"wilaya_id":15,"montant":"1800","tarif_prestation":"550","tarif_retour":"0","type_id":1,"created_at":"2026-05-06 11:06:48","payment_id":null,"return_id":null,"process_state_id":60,"livred_at":null,"exchanged_at":null,"return_asked_at":null,"last_updated_at":"2026-05-06 15:36:09","products":"\u062d\u0632\u0627\u0645 \u0634\u062f \u0627\u0644\u0638\u0647\u0631 (qte: 1)","status":"vers_hub","global_status":"en_process","status_reason":[],"order_products":[]},{"tracking":"DHDCXBD26050612854418","reference":"leki253573","client":"\u0646\u0627\u0635\u0631","phone":"0661259721","phone_2":null,"adresse":"\u00b4","stop_desk":1,"commune_id":993,"wilaya_id":43,"montant":"1600","tarif_prestation":"350","tarif_retour":"0","type_id":1,"created_at":"2026-05-06 11:06:48","payment_id":null,"return_id":null,"process_state_id":60,"livred_at":null,"exchanged_at":null,"return_asked_at":null,"last_updated_at":"2026-05-06 15:36:03","products":"\u062d\u0632\u0627\u0645 \u0634\u062f \u0627\u0644\u0638\u0647\u0631 (qte: 1)","status":"vers_hub","global_status":"en_process","status_reason":[],"order_products":[]}],"first_page_url":"https:\/\/platform.dhd-dz.com\/api\/v1\/get\/orders?page=1","from":241,"last_page":12,"last_page_url":"https:\/\/platform.dhd-dz.com\/api\/v1\/get\/orders?page=12","links":[{"url":"https:\/\/platform.dhd-dz.com\/api\/v1\/get\/orders?page=6","label":"&laquo; Pr\u00e9c\u00e9dent","active":false},{"url":"https:\/\/platform.dhd-dz.com\/api\/v1\/get\/orders?page=1","label":"1","active":false},{"url":"https:\/\/platform.dhd-dz.com\/api\/v1\/get\/orders?page=2","label":"2","active":false},{"url":"https:\/\/platform.dhd-dz.com\/api\/v1\/get\/orders?page=3","label":"3","active":false},{"url":"https:\/\/platform.dhd-dz.com\/api\/v1\/get\/orders?page=4","label":"4","active":false},{"url":"https:\/\/platform.dhd-dz.com\/api\/v1\/get\/orders?page=5","label":"5","active":false},{"url":"https:\/\/platform.dhd-dz.com\/api\/v1\/get\/orders?page=6","label":"6","active":false},{"url":"https:\/\/platform.dhd-dz.com\/api\/v1\/get\/orders?page=7","label":"7","active":true},{"url":"https:\/\/platform.dhd-dz.com\/api\/v1\/get\/orders?page=8","label":"8","active":false},{"url":"https:\/\/platform.dhd-dz.com\/api\/v1\/get\/orders?page=9","label":"9","active":false},{"url":"https:\/\/platform.dhd-dz.com\/api\/v1\/get\/orders?page=10","label":"10","active":false},{"url":"https:\/\/platform.dhd-dz.com\/api\/v1\/get\/orders?page=11","label":"11","active":false},{"url":"https:\/\/platform.dhd-dz.com\/api\/v1\/get\/orders?page=12","label":"12","active":false},{"url":"https:\/\/platform.dhd-dz.com\/api\/v1\/get\/orders?page=8","label":"Suivant &raquo;","active":false}],"next_page_url":"https:\/\/platform.dhd-dz.com\/api\/v1\/get\/orders?page=8","path":"https:\/\/platform.dhd-dz.com\/api\/v1\/get\/orders","per_page":40,"prev_page_url":"https:\/\/platform.dhd-dz.com\/api\/v1\/get\/orders?page=6","to":280,"total":444}